dump.vcd
$date
	Mon Apr 20 01:01:41 2026
$end
$version
	QuestaSim Version 2024.1
$end
$timescale
	1ns
$end

$scope module uvm_root $end
$upscope $end

$scope module tb $end

$scope module dut $end
$var wire 1 ! clk $end
$var wire 1 " resetn $end
$var wire 1 # awvalid $end
$var reg 1 $ awready $end
$var wire 1 % awid [3] $end
$var wire 1 & awid [2] $end
$var wire 1 ' awid [1] $end
$var wire 1 ( awid [0] $end
$var wire 1 ) awlen [3] $end
$var wire 1 * awlen [2] $end
$var wire 1 + awlen [1] $end
$var wire 1 , awlen [0] $end
$var wire 1 - awsize [2] $end
$var wire 1 . awsize [1] $end
$var wire 1 / awsize [0] $end
$var wire 1 0 awaddr [31] $end
$var wire 1 1 awaddr [30] $end
$var wire 1 2 awaddr [29] $end
$var wire 1 3 awaddr [28] $end
$var wire 1 4 awaddr [27] $end
$var wire 1 5 awaddr [26] $end
$var wire 1 6 awaddr [25] $end
$var wire 1 7 awaddr [24] $end
$var wire 1 8 awaddr [23] $end
$var wire 1 9 awaddr [22] $end
$var wire 1 : awaddr [21] $end
$var wire 1 ; awaddr [20] $end
$var wire 1 < awaddr [19] $end
$var wire 1 = awaddr [18] $end
$var wire 1 > awaddr [17] $end
$var wire 1 ? awaddr [16] $end
$var wire 1 @ awaddr [15] $end
$var wire 1 A awaddr [14] $end
$var wire 1 B awaddr [13] $end
$var wire 1 C awaddr [12] $end
$var wire 1 D awaddr [11] $end
$var wire 1 E awaddr [10] $end
$var wire 1 F awaddr [9] $end
$var wire 1 G awaddr [8] $end
$var wire 1 H awaddr [7] $end
$var wire 1 I awaddr [6] $end
$var wire 1 J awaddr [5] $end
$var wire 1 K awaddr [4] $end
$var wire 1 L awaddr [3] $end
$var wire 1 M awaddr [2] $end
$var wire 1 N awaddr [1] $end
$var wire 1 O awaddr [0] $end
$var wire 1 P awburst [1] $end
$var wire 1 Q awburst [0] $end
$var wire 1 R wvalid $end
$var reg 1 S wready $end
$var wire 1 T wid [3] $end
$var wire 1 U wid [2] $end
$var wire 1 V wid [1] $end
$var wire 1 W wid [0] $end
$var wire 1 X wdata [31] $end
$var wire 1 Y wdata [30] $end
$var wire 1 Z wdata [29] $end
$var wire 1 [ wdata [28] $end
$var wire 1 \ wdata [27] $end
$var wire 1 ] wdata [26] $end
$var wire 1 ^ wdata [25] $end
$var wire 1 _ wdata [24] $end
$var wire 1 ` wdata [23] $end
$var wire 1 a wdata [22] $end
$var wire 1 b wdata [21] $end
$var wire 1 c wdata [20] $end
$var wire 1 d wdata [19] $end
$var wire 1 e wdata [18] $end
$var wire 1 f wdata [17] $end
$var wire 1 g wdata [16] $end
$var wire 1 h wdata [15] $end
$var wire 1 i wdata [14] $end
$var wire 1 j wdata [13] $end
$var wire 1 k wdata [12] $end
$var wire 1 l wdata [11] $end
$var wire 1 m wdata [10] $end
$var wire 1 n wdata [9] $end
$var wire 1 o wdata [8] $end
$var wire 1 p wdata [7] $end
$var wire 1 q wdata [6] $end
$var wire 1 r wdata [5] $end
$var wire 1 s wdata [4] $end
$var wire 1 t wdata [3] $end
$var wire 1 u wdata [2] $end
$var wire 1 v wdata [1] $end
$var wire 1 w wdata [0] $end
$var wire 1 x wstrb [3] $end
$var wire 1 y wstrb [2] $end
$var wire 1 z wstrb [1] $end
$var wire 1 { wstrb [0] $end
$var wire 1 | wlast $end
$var wire 1 } bready $end
$var reg 1 ~ bvalid $end
$var reg 4 !! bid [3:0] $end
$var reg 2 "! bresp [1:0] $end
$var reg 1 #! arready $end
$var wire 1 $! arid [3] $end
$var wire 1 %! arid [2] $end
$var wire 1 &! arid [1] $end
$var wire 1 '! arid [0] $end
$var wire 1 (! araddr [31] $end
$var wire 1 )! araddr [30] $end
$var wire 1 *! araddr [29] $end
$var wire 1 +! araddr [28] $end
$var wire 1 ,! araddr [27] $end
$var wire 1 -! araddr [26] $end
$var wire 1 .! araddr [25] $end
$var wire 1 /! araddr [24] $end
$var wire 1 0! araddr [23] $end
$var wire 1 1! araddr [22] $end
$var wire 1 2! araddr [21] $end
$var wire 1 3! araddr [20] $end
$var wire 1 4! araddr [19] $end
$var wire 1 5! araddr [18] $end
$var wire 1 6! araddr [17] $end
$var wire 1 7! araddr [16] $end
$var wire 1 8! araddr [15] $end
$var wire 1 9! araddr [14] $end
$var wire 1 :! araddr [13] $end
$var wire 1 ;! araddr [12] $end
$var wire 1 <! araddr [11] $end
$var wire 1 =! araddr [10] $end
$var wire 1 >! araddr [9] $end
$var wire 1 ?! araddr [8] $end
$var wire 1 @! araddr [7] $end
$var wire 1 A! araddr [6] $end
$var wire 1 B! araddr [5] $end
$var wire 1 C! araddr [4] $end
$var wire 1 D! araddr [3] $end
$var wire 1 E! araddr [2] $end
$var wire 1 F! araddr [1] $end
$var wire 1 G! araddr [0] $end
$var wire 1 H! arlen [3] $end
$var wire 1 I! arlen [2] $end
$var wire 1 J! arlen [1] $end
$var wire 1 K! arlen [0] $end
$var wire 1 L! arsize [2] $end
$var wire 1 M! arsize [1] $end
$var wire 1 N! arsize [0] $end
$var wire 1 O! arburst [1] $end
$var wire 1 P! arburst [0] $end
$var wire 1 Q! arvalid $end
$var reg 4 R! rid [3:0] $end
$var reg 32 S! rdata [31:0] $end
$var reg 2 T! rresp [1:0] $end
$var reg 1 U! rlast $end
$var reg 1 V! rvalid $end
$var wire 1 W! rready $end
$var reg 2 X! awstate [1:0] $end
$var reg 2 Y! awnext_state [1:0] $end
$var reg 3 Z! wstate [2:0] $end
$var reg 3 [! wnext_state [2:0] $end
$var reg 2 \! bstate [1:0] $end
$var reg 2 ]! bnext_state [1:0] $end
$var reg 2 ^! arstate [1:0] $end
$var reg 2 _! arnext_state [1:0] $end
$var reg 3 `! rstate [2:0] $end
$var reg 3 a! rnext_state [2:0] $end
$var reg 32 b! awaddrt [31:0] $end
$var reg 32 c! wdatat [31:0] $end
$var reg 32 d! retaddr [31:0] $end
$var reg 32 e! nextaddr [31:0] $end
$var reg 1 f! first $end
$var reg 8 g! boundary [7:0] $end
$var reg 4 h! wlen_count [3:0] $end
$var reg 32 i! araddrt [31:0] $end
$var reg 1 j! rdfirst $end
$var reg 32 k! rdnextaddr [31:0] $end
$var reg 32 l! rdretaddr [31:0] $end
$var reg 4 m! len_count [3:0] $end
$var reg 8 n! rdboundary [7:0] $end

$scope function data_wr_fixed $end
$var reg 32 o! data_wr_fixed [31:0] $end
$var reg 4 p! wstrb [3:0] $end
$var reg 32 q! awaddrt [31:0] $end
$upscope $end

$scope function data_wr_incr $end
$var reg 32 r! data_wr_incr [31:0] $end
$var reg 4 s! wstrb [3:0] $end
$var reg 32 t! awaddrt [31:0] $end
$var reg 32 u! addr [31:0] $end
$upscope $end

$scope function wrap_boundary $end
$var reg 8 v! wrap_boundary [7:0] $end
$var reg 4 w! awlen [3:0] $end
$var reg 3 x! awsize [2:0] $end
$var reg 8 y! boundary [7:0] $end
$upscope $end

$scope function data_wr_wrap $end
$var reg 32 z! data_wr_wrap [31:0] $end
$var reg 4 {! wstrb [3:0] $end
$var reg 32 |! awaddrt [31:0] $end
$var reg 8 }! wboundary [7:0] $end
$var reg 32 ~! addr1 [31:0] $end
$var reg 32 !" addr2 [31:0] $end
$var reg 32 "" addr3 [31:0] $end
$var reg 32 #" addr4 [31:0] $end
$var reg 32 $" nextaddr [31:0] $end
$var reg 32 %" nextaddr2 [31:0] $end
$upscope $end

$scope function read_data_fixed $end
$var reg 32 &" addr [31:0] $end
$var reg 3 '" arsize [2:0] $end
$upscope $end

$scope function read_data_incr $end
$var reg 32 (" read_data_incr [31:0] $end
$var reg 32 )" addr [31:0] $end
$var reg 3 *" arsize [2:0] $end
$var reg 32 +" nextaddr [31:0] $end
$upscope $end

$scope function read_data_wrap $end
$var reg 32 ," read_data_wrap [31:0] $end
$var reg 32 -" addr [31:0] $end
$var reg 3 ." rsize [2:0] $end
$var reg 8 /" rboundary [7:0] $end
$var reg 32 0" addr1 [31:0] $end
$var reg 32 1" addr2 [31:0] $end
$var reg 32 2" addr3 [31:0] $end
$var reg 32 3" addr4 [31:0] $end
$upscope $end
$upscope $end
$upscope $end

$scope begin uvm_pkg $end
$var parameter 32 4" UVM_HDL_MAX_WIDTH $end
$var parameter 32 5" UVM_STREAMBITS $end
$var parameter 32 6" UVM_RADIX $end
$var parameter 32 7" UVM_MACRO_NUMFLAGS $end
$var parameter 32 8" UVM_DEFAULT $end
$var parameter 32 9" UVM_ALL_ON $end
$var parameter 32 :" UVM_FLAGS_ON $end
$var parameter 32 ;" UVM_FLAGS_OFF $end
$var parameter 32 <" UVM_COPY $end
$var parameter 32 =" UVM_NOCOPY $end
$var parameter 32 >" UVM_COMPARE $end
$var parameter 32 ?" UVM_NOCOMPARE $end
$var parameter 32 @" UVM_PRINT $end
$var parameter 32 A" UVM_NOPRINT $end
$var parameter 32 B" UVM_RECORD $end
$var parameter 32 C" UVM_NORECORD $end
$var parameter 32 D" UVM_PACK $end
$var parameter 32 E" UVM_NOPACK $end
$var parameter 32 F" UVM_PHYSICAL $end
$var parameter 32 G" UVM_ABSTRACT $end
$var parameter 32 H" UVM_READONLY $end
$var parameter 32 I" UVM_NODEFPRINT $end
$var parameter 32 J" UVM_MACRO_EXTRAS $end
$var parameter 32 K" UVM_FLAGS $end
$var parameter 32 L" UVM_UNPACK $end
$var parameter 32 M" UVM_CHECK_FIELDS $end
$var parameter 32 N" UVM_END_DATA_EXTRA $end
$var parameter 32 O" UVM_START_FUNCS $end
$var parameter 32 P" UVM_SET $end
$var parameter 32 Q" UVM_SETINT $end
$var parameter 32 R" UVM_SETOBJ $end
$var parameter 32 S" UVM_SETSTR $end
$var parameter 32 T" UVM_END_FUNCS $end
$var parameter 32 U" UVM_STR_CRC_POLYNOMIAL $end
$var parameter 32 V" UVM_STDOUT $end
$var parameter 32 W" UVM_LINE_WIDTH $end
$var parameter 32 X" UVM_NUM_LINES $end
$var parameter 32 Y" UVM_SMALL_STRING $end
$var parameter 32 Z" UVM_LARGE_STRING $end
$var reg 1 [" uvm_start_uvm_declarations $end
$var integer 32 \" uvm_global_random_seed $end
$var integer 32 ]" UVM_UNBOUNDED_CONNECTIONS $end

$scope function uvm_hdl_check_path $end
$var integer 32 ^" uvm_hdl_check_path $end
$upscope $end

$scope function uvm_hdl_deposit $end
$var integer 32 _" uvm_hdl_deposit $end
$var reg 1024 `" value [1023:0] $end
$upscope $end

$scope function uvm_hdl_force $end
$var integer 32 a" uvm_hdl_force $end
$var reg 1024 b" value [1023:0] $end
$upscope $end

$scope task uvm_hdl_force_time $end
$var reg 1024 c" value [1023:0] $end
$var time 64 d" force_time $end
$upscope $end

$scope function uvm_hdl_release_and_read $end
$var integer 32 e" uvm_hdl_release_and_read $end
$var reg 1024 f" value [1023:0] $end
$upscope $end

$scope function uvm_hdl_release $end
$var integer 32 g" uvm_hdl_release $end
$upscope $end

$scope function uvm_hdl_read $end
$var integer 32 h" uvm_hdl_read $end
$var reg 1024 i" value [1023:0] $end
$upscope $end

$scope function uvm_dpi_get_next_arg_c $end
$upscope $end

$scope function uvm_dpi_get_tool_name_c $end
$upscope $end

$scope function uvm_dpi_get_tool_version_c $end
$upscope $end

$scope function uvm_dpi_get_next_arg $end
$upscope $end

$scope function uvm_dpi_get_tool_name $end
$upscope $end

$scope function uvm_dpi_get_tool_version $end
$upscope $end

$scope function uvm_dpi_regcomp $end
$upscope $end

$scope function uvm_dpi_regexec $end
$var integer 32 j" uvm_dpi_regexec $end
$upscope $end

$scope function uvm_dpi_regfree $end
$upscope $end

$scope function uvm_re_match $end
$var integer 32 k" uvm_re_match $end
$upscope $end

$scope function uvm_dump_re_cache $end
$upscope $end

$scope function uvm_glob_to_re $end
$upscope $end

$scope function uvm_revision_string $end
$upscope $end

$scope function uvm_radix_to_string $end
$var integer 32 l" radix $end
$upscope $end

$scope function uvm_instance_scope $end
$var reg 8 m" c [7:0] $end
$var integer 32 n" pos $end
$upscope $end

$scope function uvm_oneway_hash $end
$var integer 32 o" uvm_oneway_hash $end
$var integer 32 p" seed $end
$var reg 1 q" msb $end
$var reg 8 r" current_byte [7:0] $end
$var reg 32 s" crc1 [31:0] $end
$upscope $end

$scope function uvm_create_random_seed $end
$var integer 32 t" uvm_create_random_seed $end
$upscope $end

$scope function uvm_object_value_str $end
$upscope $end

$scope function uvm_leaf_scope $end
$var reg 8 u" scope_separator [7:0] $end
$var reg 8 v" bracket_match [7:0] $end
$var integer 32 w" pos $end
$var integer 32 x" bmatches $end
$upscope $end

$scope function uvm_vector_to_string $end
$var reg 4096 y" value [4095:0] $end
$var integer 32 z" size $end
$var integer 32 {" radix $end
$upscope $end

$scope function uvm_get_array_index_int $end
$var integer 32 |" uvm_get_array_index_int $end
$var reg 1 }" is_wildcard $end
$var integer 32 ~" i $end
$upscope $end

$scope function uvm_get_array_index_string $end
$var reg 1 !# is_wildcard $end
$var integer 32 "# i $end
$upscope $end

$scope function uvm_is_array $end
$var reg 1 ## uvm_is_array $end
$upscope $end

$scope function uvm_has_wildcard $end
$upscope $end

$scope task run_test $end
$upscope $end

$scope function global_stop_request $end
$upscope $end

$scope function set_global_timeout $end
$var time 64 $# timeout $end
$var reg 1 %# overridable $end
$upscope $end

$scope function set_global_stop_timeout $end
$var time 64 &# timeout $end
$upscope $end

$scope function uvm_report_enabled $end
$var reg 1 '# uvm_report_enabled $end
$var integer 32 (# verbosity $end
$var reg 2 )# severity [1:0] $end
$upscope $end

$scope function uvm_report $end
$var reg 2 *# severity [1:0] $end
$var integer 32 +# verbosity $end
$var integer 32 ,# line $end
$upscope $end

$scope function uvm_report_info $end
$var integer 32 -# verbosity $end
$var integer 32 .# line $end
$upscope $end

$scope function uvm_report_warning $end
$var integer 32 /# verbosity $end
$var integer 32 0# line $end
$upscope $end

$scope function uvm_report_error $end
$var integer 32 1# verbosity $end
$var integer 32 2# line $end
$upscope $end

$scope function uvm_report_fatal $end
$var integer 32 3# verbosity $end
$var integer 32 4# line $end
$upscope $end

$scope function uvm_string_to_severity $end
$var reg 1 5# uvm_string_to_severity $end
$var reg 2 6# sev [1:0] $end
$upscope $end

$scope function uvm_string_to_action $end
$upscope $end

$scope function set_config_int $end
$var reg 4096 7# value [4095:0] $end
$upscope $end

$scope function set_config_object $end
$var reg 1 8# clone $end
$upscope $end

$scope function set_config_string $end
$upscope $end

$scope function uvm_is_match $end
$var reg 1 9# uvm_is_match $end
$upscope $end

$scope function uvm_string_to_bits $end
$var reg 115200 :# uvm_string_to_bits [115199:0] $end
$upscope $end

$scope function uvm_bits_to_string $end
$var reg 115200 ;# str [115199:0] $end
$upscope $end

$scope task uvm_wait_for_nba_region $end
$var integer 32 <# nba $end
$var integer 32 =# next_nba $end
$upscope $end

$scope function uvm_split_string $end
$upscope $end

$scope function uvm_hdl_concat2string $end
$upscope $end
$upscope $end

$scope begin testbench_sv_unit $end
$upscope $end

$scope begin questa_uvm_pkg $end
$upscope $end

$scope begin std $end
$upscope $end
$enddefinitions $end
#0
$dumpvars
0}"
0!#
0##
05#
b0 6#
bx :#
bx ;#
bx `"
bx b"
bx c"
bx f"
bx i"
1["
0q"
b1110010 r"
b11110000111001010100001100111010 s"
bx y"
0%#
0'#
b0 )#
b0 *#
bx 7#
08#
09#
0$
0S
0~
b0 !!
b0 "!
0#!
b0 R!
b0 S!
b0 T!
0U!
0V!
b0 X!
b1 Y!
b0 Z!
b1 [!
b0 \!
b1 ]!
b0 ^!
b1 _!
b0 `!
b0 a!
bx b!
bx c!
bx d!
bx e!
0f!
b0 o!
bx p!
bx q!
b0 r!
bx s!
bx t!
b0 u!
b0 v!
b0 w!
b0 x!
b0 y!
b0 z!
bx {!
bx |!
bx }!
b0 ~!
b0 !"
b0 ""
b0 #"
b0 $"
b0 %"
bx g!
b0 h!
bx i!
bx &"
bx '"
b0 ("
bx )"
bx *"
b0 +"
b0 ,"
b0 -"
b0 ."
bx /"
b0 0"
b0 1"
b0 2"
b0 3"
0j!
b0 k!
b0 l!
b0 m!
bx n!
b10000000000 4"
b1000000000000 5"
b1111000000000000000000000000 6"
b10001 7"
b10101010101 8"
b101010101 9"
b101010101 :"
b0 ;"
b1 <"
b10 ="
b100 >"
b1000 ?"
b10000 @"
b100000 A"
b1000000 B"
b10000000 C"
b100000000 D"
b1000000000 E"
b10000000000000 F"
b100000000000000 G"
b1000000000000000 H"
b10000000000000000 I"
b100000000000000000 J"
b100000000000000001 K"
b100000000000000010 L"
b100000000000000011 M"
b100000000000000100 N"
b100000000000000101 O"
b100000000000000110 P"
b100000000000000110 Q"
b100000000000000111 R"
b100000000000001000 S"
b100000000000001000 T"
b100110000010001110110110110 U"
b1 V"
b1111000 W"
b1111000 X"
b1110111111 Y"
b11100000111111111 Z"
b0 l"
b0 u"
b0 v"
b0 w"
b0 x"
b0 |"
b0 ~"
b0 "#
b0 ^"
b0 _"
b0 a"
b0 e"
b0 g"
b0 h"
b1 j"
b0 k"
b1100101110011111100110100100110 \"
b101110 m"
b111 n"
b101011100010111110011100110101 o"
b1100101110011111100110100100110 p"
b1010110001011001011110000011000 t"
b0 z"
b0 {"
b111110100 (#
b0 +#
b0 ,#
b11001000 -#
b100010110 .#
b0 /#
b0 0#
b0 1#
b0 2#
b0 3#
b0 4#
b100100 <#
b100100 =#
b11111111111111111111111111111111 ]"
bx d"
bx $#
bx &#
0W!
0Q!
xP!
xO!
xN!
xM!
xL!
xK!
xJ!
xI!
xH!
xG!
xF!
xE!
xD!
xC!
xB!
xA!
x@!
x?!
x>!
x=!
x<!
x;!
x:!
x9!
x8!
x7!
x6!
x5!
x4!
x3!
x2!
x1!
x0!
x/!
x.!
x-!
x,!
x+!
x*!
x)!
x(!
x'!
x&!
x%!
x$!
0}
0|
1{
1z
1y
1x
0w
1v
0u
0t
0s
0r
0q
0p
0o
0n
0m
0l
0k
0j
0i
0h
0g
0f
0e
0d
0c
0b
0a
0`
0_
0^
0]
0\
0[
0Z
0Y
0X
0W
0V
0U
0T
1R
0Q
0P
0O
0N
0M
0L
0K
0J
0I
1H
0G
0F
0E
0D
0C
0B
0A
0@
0?
0>
0=
0<
0;
0:
09
08
07
06
05
04
03
02
01
00
0/
1.
0-
1,
1+
1*
0)
0(
0'
0&
0%
1#
1"
0!
$end
#5
1!
b1 X!
b1 Z!
b1 \!
b1 ^!
b100 [!
b10 c!
b10 Y!
b10000000 b!
#10
0!
#15
1!
b10 X!
b100 Z!
b10 [!
b10000000 e!
1f!
1$
#20
0!
#25
1!
b10 Z!
b0 Y!
b11 [!
1S
b1111 p!
b10000000 q!
b10000000 o!
b10000000 d!
#30
0!
#35
1!
b0 X!
b11 Z!
1u
0S
b1 [!
b1 h!
0$
b1 Y!
#40
0!
#45
1!
b1 X!
b1 Z!
b100 [!
b110 c!
b10 Y!
#50
0!
#55
1!
b10 X!
b100 Z!
b10 [!
1$
#60
0!
#65
1!
b10 Z!
b0 Y!
b11 [!
1S
#70
0!
#75
1!
b0 X!
b11 Z!
0u
0S
b1 [!
b10 h!
0$
b1 Y!
#80
0!
#85
1!
b1 X!
b1 Z!
b100 [!
b10 c!
b10 Y!
#90
0!
#95
1!
b10 X!
b100 Z!
b10 [!
1$
#100
0!
#105
1!
b10 Z!
b0 Y!
b11 [!
1S
#110
0!
#115
1!
b0 X!
b11 Z!
0v
1t
0S
b1 [!
b11 h!
0$
b1 Y!
#120
0!
#125
1!
b1 X!
b1 Z!
b100 [!
b1000 c!
b10 Y!
#130
0!
#135
1!
b10 X!
b100 Z!
b10 [!
1$
#140
0!
#145
1!
b10 Z!
b0 Y!
b11 [!
1S
#150
0!
#155
1!
b0 X!
b11 Z!
1w
1v
1u
0t
0S
b1 [!
b100 h!
0$
b1 Y!
#160
0!
#165
1!
b1 X!
b1 Z!
b100 [!
b111 c!
b10 Y!
#170
0!
#175
1!
b10 X!
b100 Z!
b10 [!
1$
#180
0!
#185
1!
b10 Z!
b0 Y!
b11 [!
1S
#190
0!
#195
1!
b0 X!
b11 Z!
0w
0S
b1 [!
b101 h!
0$
b1 Y!
#200
0!
#205
1!
b1 X!
b1 Z!
b100 [!
b110 c!
b10 Y!
#210
0!
#215
1!
b10 X!
b100 Z!
b10 [!
1$
#220
0!
#225
1!
b10 Z!
b0 Y!
b11 [!
1S
#230
0!
#235
1!
b0 X!
b11 Z!
0u
1t
0S
b1 [!
b110 h!
0$
b1 Y!
#240
0!
#245
1!
b1 X!
b1 Z!
b100 [!
b1010 c!
b10 Y!
#250
0!
#255
1!
b10 X!
b100 Z!
b10 [!
1$
#260
0!
#265
1!
b10 Z!
b0 Y!
b11 [!
1S
#270
0!
#275
1!
b0 X!
b11 Z!
0S
b1 [!
b111 h!
0$
b1 Y!
#280
0!
#285
1!
b1 X!
b1 Z!
b100 [!
b10 Y!
#290
0!
#295
1!
b10 X!
b100 Z!
b10 [!
1$
#300
0!
#305
1!
b10 Z!
b0 Y!
b11 [!
1S
#310
0!
#315
1!
b0 X!
b11 Z!
1|
1}
0#
0R
b10 ]!
0S
b1 [!
b1000 h!
0$
b1 Y!
#320
0!
#325
1!
b1 X!
b1 Z!
b10 \!
1~
b11 ]!
b11 "!
#330
0!
#335
1!
b11 \!
b0 ]!
#340
0!
#345
1!
b0 \!
b0 "!
0~
b1 ]!
0}
0|
#350
0!
#355
1!
b1 \!
1Q!
1W!
0P!
0O!
0G!
0F!
0E!
0D!
0C!
0B!
0A!
1@!
0?!
0>!
0=!
0<!
0;!
0:!
09!
08!
07!
06!
05!
04!
03!
02!
01!
00!
0/!
0.!
0-!
0,!
0+!
0*!
0)!
0(!
0N!
1M!
0L!
1K!
1J!
1I!
0H!
0'!
0&!
0%!
0$!
b10 _!
b10000000 i!
b1 a!
#360
0!
#365
1!
b10 ^!
b1 `!
b11 T!
1V!
b100 a!
b0 _!
1#!
#370
0!
#375
1!
b0 ^!
b100 `!
0V!
b1 a!
b1 m!
0#!
b1 _!
#380
0!
#385
1!
b1 ^!
b1 `!
1V!
b100 a!
b10 _!
#390
0!
#395
1!
b10 ^!
b100 `!
0V!
b0 _!
1#!
b1 a!
b10 m!
#400
0!
#405
1!
b0 ^!
b1 `!
1V!
b100 a!
0#!
b1 _!
#410
0!
#415
1!
b1 ^!
b100 `!
0V!
b10 _!
#420
0!
#425
1!
b10 ^!
b0 _!
1#!
b1 a!
b11 m!
#430
0!
#435
1!
b0 ^!
b1 `!
1V!
b100 a!
0#!
b1 _!
#440
0!
#445
1!
b1 ^!
b100 `!
0V!
b10 _!
#450
0!
#455
1!
b10 ^!
b0 _!
1#!
b1 a!
b100 m!
#460
0!
#465
1!
b0 ^!
b1 `!
1V!
b100 a!
0#!
b1 _!
#470
0!
#475
1!
b1 ^!
b100 `!
0V!
b10 _!
#480
0!
#485
1!
b10 ^!
b0 _!
1#!
b1 a!
b101 m!
#490
0!
#495
1!
b0 ^!
b1 `!
1V!
b100 a!
0#!
b1 _!
#500
0!
#505
1!
b1 ^!
b100 `!
0V!
b10 _!
#510
0!
#515
1!
b10 ^!
b0 _!
1#!
b1 a!
b110 m!
#520
0!
#525
1!
b0 ^!
b1 `!
1V!
b100 a!
0#!
b1 _!
#530
0!
#535
1!
b1 ^!
b100 `!
0V!
b10 _!
#540
0!
#545
1!
b10 ^!
b0 _!
1#!
b1 a!
b111 m!
#550
0!
#555
1!
b0 ^!
b1 `!
1V!
b100 a!
0#!
b1 _!
#560
0!
#565
1!
b1 ^!
b100 `!
0V!
1U!
b0 a!
b0 m!
b10 _!
#570
0!
#575
1!
b10 ^!
b0 `!
b0 T!
0U!
b1 a!
b0 _!
1#!
b100101 =#
b100101 <#
0Q!
0W!
b0 a!
#580
0!
#585
1!
b0 ^!
0#!
b1 _!
#590
0!
#595
b100110 =#
b100111 =#
b100110 <#
b100111 <#
1!
b101000 =#
b101001 =#
b1 ^!
b101000 <#
b101001 <#
b1010110001011001011110000101010 t"
b111010101001101011110111100 t"
b11101110010101100010110110111001 t"
b1111100100011010001000010011110 t"
b1010101000100010111101001000110 t"
b100110011100000111000110101111 t"
b11110111010111001101011111000001 t"
b10001010001011001110011111010100 t"
b11111101001101000111010000010000 t"
b110010110011100101011011111011 t"
b11001010011110100111110110100010 t"
b11001111101100001010100001000111 t"
b101110111010101100100011110 t"
b11111010100000111001100000001000 t"
b1000100100100001111110010011001 t"
b11011010100010101011111000101100 t"
b111110011011000010011100011111 t"
b10100111000001111001110011 t"
b10001010001100111101111001001100 t"
b10011110011110001010010010000010 t"
b110100110100100000111010110111 t"
b11011000100010110101100101000110 t"
b1010110001011001011110000111101 t"
b111010101001101011111001111 t"
b11101110010101100010110111001100 t"
b1111100100011010001000010110001 t"
b1010101000100010111101001011001 t"
b100110011100000111000111000010 t"
b11110111010111001101011111010100 t"
b10001010001011001110011111100111 t"
b11111101001101000111010000100011 t"
b110010110011100101011100001110 t"
b11001010011110100111110110110101 t"
b11001111101100001010100001011010 t"
b101110111010101100100110001 t"
b11111010100000111001100000011011 t"
b1000100100100001111110010101100 t"
b11011010100010101011111000111111 t"
b111110011011000010011100110010 t"
b10100111000001111010000110 t"
b10001010001100111101111001011111 t"
b10011110011110001010010010010101 t"
b110100110100100000111011001010 t"
b11011000100010110101100101011001 t"
b1010110001011001011110001010001 t"
b111010101001101011111100011 t"
b11101110010101100010110111100000 t"
b1111100100011010001000011000101 t"
b1010101000100010111101001101101 t"
b100110011100000111000111010110 t"
b11110111010111001101011111101000 t"
b10001010001011001110011111111011 t"
b11111101001101000111010000110111 t"
b110010110011100101011100100010 t"
b11001010011110100111110111001001 t"
b11001111101100001010100001101110 t"
b101110111010101100101000101 t"
b11111010100000111001100000101111 t"
b1000100100100001111110011000000 t"
b11011010100010101011111001010011 t"
b111110011011000010011101000110 t"
b10100111000001111010011010 t"
b10001010001100111101111001110011 t"
b10011110011110001010010010101001 t"
b110100110100100000111011011110 t"
b11011000100010110101100101101101 t"
b11011000100010110101100110000010 t"
b110100110100100000111011110011 t"
b10011110011110001010010010111110 t"
b10001010001100111101111010001000 t"
b11101110010101100010110111110101 t"
b1010110001011001011110001100110 t"
b111010101001101011111111000 t"
b1111100100011010001000011011010 t"
b10100111000001111010101111 t"
b11111101001101000111010001001100 t"
b1010101000100010111101010000010 t"
b100110011100000111000111101011 t"
b11110111010111001101011111111101 t"
b10001010001011001110100000010000 t"
b110010110011100101011100110111 t"
b11001010011110100111110111011110 t"
b111110011011000010011101011011 t"
b11001111101100001010100010000011 t"
b101110111010101100101011010 t"
b11111010100000111001100001000100 t"
b1000100100100001111110011010101 t"
b11011010100010101011111001101000 t"
